﻿<?xml version="1.0" encoding="UTF-8"?>
<kml xmlns="http://www.opengis.net/kml/2.2">
<Folder><name>Coverage of 145.25 est coverage**</name>
<GroundOverlay><name>Coverage</name>
<description>145.250 MHz | 
39.62 W ERPI | 
158.00 dB System Gain</description>
<color>88ffffff</color><Icon><href>RMEBA56445FB98_5.png</href>
<viewBoundScale>0.75</viewBoundScale></Icon><LatLonBox>
<north> 41.26712</north>
<south> 39.46848</south>
<east>-110.4124</east>
<west>-112.7732</west>
</LatLonBox></GroundOverlay>
<Placemark><name>Sundance Ski Lift</name>
<Point><coordinates>-111.5928, 40.3678,0
</coordinates></Point></Placemark></Folder></kml>
